"0","NormalizedData <- cbind(fire.data[1],(fire.data[-1]/ren.data[-1])) # dividing firefly by renilla, to control for internal variables from well-to-well, in other words calculating fold change"
"0","NormalizedData[,-1] <- NormalizedData[,-1]/rowMeans(NormalizedData[1,-1]) #fold change relative to sv40 "
"0",""
"0","NormalizedData$fratio <- rowMeans(NormalizedData[,-1]) #calculates the mean of each sample"
"0","#NormalizedData$std <- NormalizedData %>% select(starts_with('rep')) %>% apply(., 1, sd)  #calculates the standard deviation of each sample"
"0",""
"0","NormalizedData$std <- NormalizedData[-1] %>% apply(., 1, sd)  #calculates the standard deviation of each sample"
"0",""
"0","NormalizedData"
