Untransfected;22;20;0
sv40;4746;4345;3369
CMV;3298;3773;4740
Ele0377;3146;2930;2747
Ele0307;2365;2387;2014
Ele1054;2336;2949;2951
Ele0849;2038;1830;2366
Ele242;1753;1864;2682
Ele0086;2440;2486;2467
